{
    "serviceId": "cloudvalid",
    "version": 20241125,
    "warnPhishing": true,
    "description": "Verifying Domains and Email for 3rd Party Applications",
    "syncPubKeyDomain": "domainconnect.svcb.io",
    "variableDescription": "Self explanatory in the variable names",

    "shared": true,
    "sharedProviderName": true,
    "sharedServiceName": true,
    "providerId": "cloudvalid.com",
    "providerName": "CloudValid (DNS Enablement)",
    
    "records": [
    
        {
            "groupId": "create_spf_spfm",
            "type": "SPFM",
            "host": "%spf_host%",
            "spfRules": "%spf_rules%",
            "ttl": 3600
        },
    
        {
            "groupId": "create_spf_subdomain_cname",
            "type": "CNAME",
            "host": "%spf_subdomain%",
            "pointsTo": "%spf_service_name%",
            "ttl": 3600
        },
        
        {
            "groupId": "create_dkim_cname_1",
            "type": "CNAME",
            "host": "%selector_1%",
            "pointsTo": "%target_domainkey_1%",
            "ttl": 3600
        },
        
        {
            "groupId": "create_dkim_cname_2",
            "type": "CNAME",
            "host": "%selector_2%",
            "pointsTo": "%target_domainkey_2%",
            "ttl": 3600
        },
        
        {
            "groupId": "create_dkim_cname_3",
            "type": "CNAME",
            "host": "%selector_3%",
            "pointsTo": "%target_domainkey_3%",
            "ttl": 3600
        },
        
        {
            "groupId": "create_dkim_cname_4",
            "type": "CNAME",
            "host": "%selector_4%",
            "pointsTo": "%target_domainkey_4%",
            "ttl": 3600
        },

        {
            "groupId": "create_dkim_txt_1",
            "type": "TXT",
            "host": "%selector_1_txt%",
            "data":"%dkim_data_1_txt%",
            "ttl": 3600
        },

        {
            "groupId": "create_dkim_txt_2",
            "type": "TXT",
            "host": "%selector_2_txt%",
            "data":"%dkim_data_2_txt%",
            "ttl": 3600
        },

        {
            "groupId": "create_dkim_txt_3",
            "type": "TXT",
            "host": "%selector_3_txt%",
            "data":"%dkim_data_3_txt%",
            "ttl": 3600
        },

        {
            "groupId": "create_dkim_txt_4",
            "type": "TXT",
            "host": "%selector_4_txt%",
            "data":"%dkim_data_4_txt%",
            "ttl": 3600
        },
        
        {
            "groupId": "create_bimi_txt",
            "type": "TXT",
            "host": "%bimi_host%",
            "data":"%bimi_data%",
            "ttl": 3600
        },
        
        {
            "groupId": "create_domainverify_txt",
            "type": "TXT",
            "host": "%domainverify_host%",
            "data":"%domainverify_data%",
            "ttl": 3600
        },

        {
            "groupId": "create_sub_domainverify",
            "type": "CNAME",
            "host": "%verification_key%._domainverify",
            "pointsTo": "%verification_id%",
            "ttl": 3600
        },
        
        {
            "groupId": "create_ssl_cname",
            "type": "CNAME",
            "host": "%ssl_host%",
            "pointsTo": "%ssl_service_name%",
            "ttl": 3600
        },
        
        {
            "groupId": "create_custom_domain",
            "type": "CNAME",
            "host": "%custom_domain_host%",
            "pointsTo": "%custom_domain_service_name%",
            "ttl": 3600
        },

        {
            "groupId": "create_cname_flattening",
            "type": "CNAME",
            "host": "%cname_flattening_host%",
            "pointsTo": "%cname_flattening_service_name%",
            "ttl": 3600
        },

        {
            "groupId": "create_https_apex_alias",
            "type": "HTTPS",
            "host": "@",
            "pointsTo": "%https_service_name%",
            "priority": 0,
            "ttl": 3600
        },

        {
            "groupId": "create_fallback_IP_1",
            "type": "A",
            "host": "%fallback_IP_1_host%",
            "pointsTo": "%fallback_IP_1%",
            "ttl": 3600
        },

        {
            "groupId": "create_fallback_IP_2",
            "type": "A",
            "host": "%fallback_IP_2_host%",
            "pointsTo": "%fallback_IP_2%",
            "ttl": 3600
        },

        {
            "groupId": "create_fallback_IP_3",
            "type": "A",
            "host": "%fallback_IP_3_host%",
            "pointsTo": "%fallback_IP_3%",
            "ttl": 3600
        },

        {
            "groupId": "create_fallback_IP_4",
            "type": "A",
            "host": "%fallback_IP_4_host%",
            "pointsTo": "%fallback_IP_4%",
            "ttl": 3600
        },

        {
            "groupId": "create_dmarc_txt",
            "type": "TXT",
            "host": "%_dmarc_host%",
            "data":"%dmarc_txt_data%",
            "ttl": 3600
        },

        {
            "groupId": "create_dmarc_cname",
            "type": "CNAME",
            "host": "_dmarc%dmarc_host%",
            "pointsTo": "%dmarc_cname_target%",
            "ttl": 3600
        },

        {
            "groupId": "create_mx_null",
            "type": "MX",
            "host": "%mx_null_host%",
            "pointsTo":".",
            "priority": 0,
            "ttl": 3600
        },
        
        {
            "groupId": "create_mx_1",
            "type": "MX",
            "host": "%mx_1_host%",
            "pointsTo":"%mx_1_pointsTo%",
            "priority": 10,
            "ttl": 3600
        },

        {
            "groupId": "create_mx_2",
            "type": "MX",
            "host": "%mx_2_host%",
            "pointsTo":"%mx_2_pointsTo%",
            "priority": 20,
            "ttl": 3600
        },

        {
            "groupId": "create_mx_3",
            "type": "MX",
            "host": "%mx_3_host%",
            "pointsTo":"%mx_3_pointsTo%",
            "priority": 30,
            "ttl": 3600
        },

        {
            "groupId": "create_mx_4",
            "type": "MX",
            "host": "%mx_4_host%",
            "pointsTo":"%mx_4_pointsTo%",
            "priority": 40,
            "ttl": 3600
        },

        {
            "groupId": "create_mx_5",
            "type": "MX",
            "host": "%mx_5_host%",
            "pointsTo":"%mx_5_pointsTo%",
            "priority": 50,
            "ttl": 3600
        },

        {
            "groupId": "delegate_subdomain_cv",
            "type": "NS",
            "host": "setup",
            "pointsTo":"ns1.cloudvalid.net",
            "ttl": 3600
        },

        {
            "groupId": "delegate_subdomain_cv",
            "type": "NS",
            "host": "setup",
            "pointsTo":"ns2.cloudvalid.net",
            "ttl": 3600
        },

        {
            "groupId": "delegate_subdomain_cv",
            "type": "NS",
            "host": "setup",
            "pointsTo":"ns3.cloudvalid.net",
            "ttl": 3600
        },

        {
            "groupId": "delegate_subdomain_cv",
            "type": "NS",
            "host": "setup",
            "pointsTo":"ns4.cloudvalid.net",
            "ttl": 3600
        },

        {
            "groupId": "delegate_subdomain_ns_1",
            "type": "NS",
            "host": "%ns_subdomain_1%",
            "pointsTo":"%ns_target_1%",
            "ttl": 3600
        },

        {
            "groupId": "delegate_subdomain_ns_2",
            "type": "NS",
            "host": "%ns_subdomain_2%",
            "pointsTo":"%ns_target_2%",
            "ttl": 3600
        },

        {
            "groupId": "delegate_subdomain_ns_3",
            "type": "NS",
            "host": "%ns_subdomain_3%",
            "pointsTo":"%ns_target_3%",
            "ttl": 3600
        },

        {
            "groupId": "delegate_subdomain_ns_4",
            "type": "NS",
            "host": "%ns_subdomain_4%",
            "pointsTo":"%ns_target_4%",
            "ttl": 3600
        }

    ]

}